simulation/qsim/PWM.msim.vcd
$comment
	File created using the following command:
		vcd file PWM.msim.vcd -direction
$end
$date
	Sun Mar 17 16:52:07 2024
$end
$version
	ModelSim Version 2020.1
$end
$timescale
	1ps
$end

$scope module PWM_vlg_vec_tst $end
$var reg 1 ! Clock $end
$var reg 1 " Reset $end
$var reg 1 # WE_disable_pwm $end
$var reg 1 $ WE_enable_pwm $end
$var reg 1 % WE_impuls_high $end
$var reg 1 & WE_impuls_low $end
$var reg 1 ' WE_period_high $end
$var reg 1 ( WE_period_low $end
$var reg 8 ) impuls_high [7:0] $end
$var reg 8 * impuls_low [7:0] $end
$var reg 8 + period_high [7:0] $end
$var reg 8 , period_low [7:0] $end
$var wire 1 - out_pwm $end

$scope module i1 $end
$var wire 1 . gnd $end
$var wire 1 / vcc $end
$var wire 1 0 unknown $end
$var tri1 1 1 devclrn $end
$var tri1 1 2 devpor $end
$var tri1 1 3 devoe $end
$var wire 1 4 out_pwm~output_o $end
$var wire 1 5 WE_enable_pwm~input_o $end
$var wire 1 6 WE_disable_pwm~input_o $end
$var wire 1 7 enable_pwm~combout $end
$var wire 1 8 Clock~input_o $end
$var wire 1 9 Clock~inputclkctrl_outclk $end
$var wire 1 : WE_period_high~input_o $end
$var wire 1 ; WE_period_high~inputclkctrl_outclk $end
$var wire 1 < period_high[7]~input_o $end
$var wire 1 = Reset~input_o $end
$var wire 1 > Reset~inputclkctrl_outclk $end
$var wire 1 ? WE_impuls_high~input_o $end
$var wire 1 @ WE_impuls_high~inputclkctrl_outclk $end
$var wire 1 A impuls_high[7]~input_o $end
$var wire 1 B reg_current_period[0]~48_combout $end
$var wire 1 C reg_current_period~16_combout $end
$var wire 1 D reg_current_period[1]~18_combout $end
$var wire 1 E reg_current_period~17_combout $end
$var wire 1 F reg_current_period[1]~19 $end
$var wire 1 G reg_current_period[2]~20_combout $end
$var wire 1 H reg_current_period[2]~21 $end
$var wire 1 I reg_current_period[3]~22_combout $end
$var wire 1 J reg_current_period[3]~23 $end
$var wire 1 K reg_current_period[4]~24_combout $end
$var wire 1 L reg_current_period[4]~25 $end
$var wire 1 M reg_current_period[5]~26_combout $end
$var wire 1 N reg_current_period[5]~27 $end
$var wire 1 O reg_current_period[6]~28_combout $end
$var wire 1 P reg_current_period[6]~29 $end
$var wire 1 Q reg_current_period[7]~30_combout $end
$var wire 1 R reg_current_period[7]~31 $end
$var wire 1 S reg_current_period[8]~32_combout $end
$var wire 1 T reg_current_period[8]~33 $end
$var wire 1 U reg_current_period[9]~34_combout $end
$var wire 1 V reg_current_period[9]~35 $end
$var wire 1 W reg_current_period[10]~36_combout $end
$var wire 1 X reg_current_period[10]~37 $end
$var wire 1 Y reg_current_period[11]~38_combout $end
$var wire 1 Z reg_current_period[11]~39 $end
$var wire 1 [ reg_current_period[12]~40_combout $end
$var wire 1 \ reg_current_period[12]~41 $end
$var wire 1 ] reg_current_period[13]~42_combout $end
$var wire 1 ^ reg_current_period[13]~43 $end
$var wire 1 _ reg_current_period[14]~44_combout $end
$var wire 1 ` impuls_high[6]~input_o $end
$var wire 1 a impuls_high[5]~input_o $end
$var wire 1 b impuls_high[4]~input_o $end
$var wire 1 c impuls_high[3]~input_o $end
$var wire 1 d impuls_high[2]~input_o $end
$var wire 1 e impuls_high[1]~input_o $end
$var wire 1 f impuls_high[0]~input_o $end
$var wire 1 g WE_impuls_low~input_o $end
$var wire 1 h WE_impuls_low~inputclkctrl_outclk $end
$var wire 1 i impuls_low[7]~input_o $end
$var wire 1 j impuls_low[6]~input_o $end
$var wire 1 k reg_impuls[6]~feeder_combout $end
$var wire 1 l impuls_low[5]~input_o $end
$var wire 1 m reg_impuls[5]~feeder_combout $end
$var wire 1 n impuls_low[4]~input_o $end
$var wire 1 o reg_impuls[4]~feeder_combout $end
$var wire 1 p impuls_low[3]~input_o $end
$var wire 1 q reg_impuls[3]~feeder_combout $end
$var wire 1 r impuls_low[2]~input_o $end
$var wire 1 s reg_impuls[2]~feeder_combout $end
$var wire 1 t impuls_low[1]~input_o $end
$var wire 1 u impuls_low[0]~input_o $end
$var wire 1 v LessThan0~1_cout $end
$var wire 1 w LessThan0~3_cout $end
$var wire 1 x LessThan0~5_cout $end
$var wire 1 y LessThan0~7_cout $end
$var wire 1 z LessThan0~9_cout $end
$var wire 1 { LessThan0~11_cout $end
$var wire 1 | LessThan0~13_cout $end
$var wire 1 } LessThan0~15_cout $end
$var wire 1 ~ LessThan0~17_cout $end
$var wire 1 !! LessThan0~19_cout $end
$var wire 1 "! LessThan0~21_cout $end
$var wire 1 #! LessThan0~23_cout $end
$var wire 1 $! LessThan0~25_cout $end
$var wire 1 %! LessThan0~27_cout $end
$var wire 1 &! LessThan0~29_cout $end
$var wire 1 '! LessThan0~30_combout $end
$var wire 1 (! reg_current_period~15_combout $end
$var wire 1 )! reg_current_period[14]~45 $end
$var wire 1 *! reg_current_period[15]~46_combout $end
$var wire 1 +! period_high[6]~input_o $end
$var wire 1 ,! period_high[5]~input_o $end
$var wire 1 -! period_high[4]~input_o $end
$var wire 1 .! period_high[3]~input_o $end
$var wire 1 /! period_high[2]~input_o $end
$var wire 1 0! period_high[1]~input_o $end
$var wire 1 1! period_high[0]~input_o $end
$var wire 1 2! WE_period_low~input_o $end
$var wire 1 3! WE_period_low~inputclkctrl_outclk $end
$var wire 1 4! period_low[7]~input_o $end
$var wire 1 5! reg_period[7]~feeder_combout $end
$var wire 1 6! period_low[6]~input_o $end
$var wire 1 7! period_low[5]~input_o $end
$var wire 1 8! period_low[4]~input_o $end
$var wire 1 9! period_low[3]~input_o $end
$var wire 1 :! reg_period[3]~feeder_combout $end
$var wire 1 ;! period_low[2]~input_o $end
$var wire 1 <! reg_period[2]~feeder_combout $end
$var wire 1 =! period_low[1]~input_o $end
$var wire 1 >! reg_period[1]~feeder_combout $end
$var wire 1 ?! period_low[0]~input_o $end
$var wire 1 @! reg_period[0]~feeder_combout $end
$var wire 1 A! LessThan1~1_cout $end
$var wire 1 B! LessThan1~3_cout $end
$var wire 1 C! LessThan1~5_cout $end
$var wire 1 D! LessThan1~7_cout $end
$var wire 1 E! LessThan1~9_cout $end
$var wire 1 F! LessThan1~11_cout $end
$var wire 1 G! LessThan1~13_cout $end
$var wire 1 H! LessThan1~15_cout $end
$var wire 1 I! LessThan1~17_cout $end
$var wire 1 J! LessThan1~19_cout $end
$var wire 1 K! LessThan1~21_cout $end
$var wire 1 L! LessThan1~23_cout $end
$var wire 1 M! LessThan1~25_cout $end
$var wire 1 N! LessThan1~27_cout $end
$var wire 1 O! LessThan1~29_cout $end
$var wire 1 P! LessThan1~30_combout $end
$var wire 1 Q! out~0_combout $end
$var wire 1 R! out~1_combout $end
$var wire 1 S! out~q $end
$var wire 1 T! out_pwm~0_combout $end
$var wire 1 U! reg_current_period [15] $end
$var wire 1 V! reg_current_period [14] $end
$var wire 1 W! reg_current_period [13] $end
$var wire 1 X! reg_current_period [12] $end
$var wire 1 Y! reg_current_period [11] $end
$var wire 1 Z! reg_current_period [10] $end
$var wire 1 [! reg_current_period [9] $end
$var wire 1 \! reg_current_period [8] $end
$var wire 1 ]! reg_current_period [7] $end
$var wire 1 ^! reg_current_period [6] $end
$var wire 1 _! reg_current_period [5] $end
$var wire 1 `! reg_current_period [4] $end
$var wire 1 a! reg_current_period [3] $end
$var wire 1 b! reg_current_period [2] $end
$var wire 1 c! reg_current_period [1] $end
$var wire 1 d! reg_current_period [0] $end
$var wire 1 e! reg_period [15] $end
$var wire 1 f! reg_period [14] $end
$var wire 1 g! reg_period [13] $end
$var wire 1 h! reg_period [12] $end
$var wire 1 i! reg_period [11] $end
$var wire 1 j! reg_period [10] $end
$var wire 1 k! reg_period [9] $end
$var wire 1 l! reg_period [8] $end
$var wire 1 m! reg_period [7] $end
$var wire 1 n! reg_period [6] $end
$var wire 1 o! reg_period [5] $end
$var wire 1 p! reg_period [4] $end
$var wire 1 q! reg_period [3] $end
$var wire 1 r! reg_period [2] $end
$var wire 1 s! reg_period [1] $end
$var wire 1 t! reg_period [0] $end
$var wire 1 u! reg_impuls [15] $end
$var wire 1 v! reg_impuls [14] $end
$var wire 1 w! reg_impuls [13] $end
$var wire 1 x! reg_impuls [12] $end
$var wire 1 y! reg_impuls [11] $end
$var wire 1 z! reg_impuls [10] $end
$var wire 1 {! reg_impuls [9] $end
$var wire 1 |! reg_impuls [8] $end
$var wire 1 }! reg_impuls [7] $end
$var wire 1 ~! reg_impuls [6] $end
$var wire 1 !" reg_impuls [5] $end
$var wire 1 "" reg_impuls [4] $end
$var wire 1 #" reg_impuls [3] $end
$var wire 1 $" reg_impuls [2] $end
$var wire 1 %" reg_impuls [1] $end
$var wire 1 &" reg_impuls [0] $end
$upscope $end
$upscope $end
$enddefinitions $end
#0
$dumpvars
0!
0"
0#
0$
0%
0&
0'
0(
b0 )
b0 *
b0 +
b0 ,
x-
0.
1/
x0
11
12
13
x4
05
06
x7
08
x9
0:
x;
0<
0=
x>
0?
x@
0A
xB
xC
xD
xE
xF
xG
xH
xI
xJ
xK
xL
xM
xN
xO
xP
xQ
xR
xS
xT
xU
xV
xW
xX
xY
xZ
x[
x\
x]
x^
x_
0`
0a
0b
0c
0d
0e
0f
0g
xh
0i
0j
xk
0l
xm
0n
xo
0p
xq
0r
xs
0t
0u
xv
xw
xx
xy
xz
x{
x|
x}
x~
x!!
x"!
x#!
x$!
x%!
x&!
x'!
x(!
x)!
x*!
0+!
0,!
0-!
0.!
0/!
00!
01!
02!
x3!
04!
x5!
06!
07!
08!
09!
x:!
0;!
x<!
0=!
x>!
0?!
x@!
xA!
xB!
xC!
xD!
xE!
xF!
xG!
xH!
xI!
xJ!
xK!
xL!
xM!
xN!
xO!
xP!
xQ!
xR!
0S!
xT!
0d!
0c!
0b!
0a!
0`!
0_!
0^!
0]!
0\!
0[!
0Z!
0Y!
0X!
0W!
0V!
0U!
0t!
0s!
0r!
0q!
0p!
0o!
0n!
0m!
0l!
0k!
0j!
0i!
0h!
0g!
0f!
0e!
0&"
0%"
0$"
0#"
0""
0!"
0~!
0}!
0|!
0{!
0z!
0y!
0x!
0w!
0v!
0u!
$end
#158
09
0;
0>
0@
0h
03!
#405
0T!
#662
0J
#663
0N
#720
0C
#787
1)!
#804
0^
#805
0A!
#808
1\
#810
1H
#813
1T
#863
1B!
#871
0E
#919
1P
#921
0C!
#963
0v
#978
0Z
#979
1D!
#993
0V
#1012
0R
#1037
0E!
#1095
1F!
#1099
0K
#1100
0O
#1107
1L
#1123
1X
#1153
0G!
#1190
1B
#1211
1H!
#1224
0*!
#1235
0Q!
#1241
0_
#1245
0]
#1247
0I
#1250
0U
#1269
0I!
#1327
1J!
#1356
0Q
#1385
0K!
#1400
1w
#1415
0[
#1430
0W
#1433
0F
#1443
1L!
#1449
0S
#1458
0x
#1501
0M!
#1510
0D
#1516
1y
#1544
0M
#1559
1N!
#1560
0Y
#1574
0z
#1617
0O!
#1632
1{
#1690
0|
#1748
1}
#1806
0~
#1844
0R!
#1864
1!!
#1870
0G
#1922
0"!
#1980
1#!
#2038
0$!
#2054
0P!
#2096
1%!
#2154
0&!
#2591
0'!
#3271
0(!
#3353
0>!
#3403
0:!
#3428
0s
#3596
0m
#3628
0q
#3722
0<!
#3732
0k
#3739
05!
#3771
0@!
#3779
0o
#3790
04
0-
#20000
1#
1"
#20594
16
#20596
1=
#20776
1>
#21839
xQ!
#22395
xR!
#23765
07
#24360
0Q!
#24969
0R!
#40000
1!
b10000000 ,
b11000000 ,
b11100000 ,
b11101000 ,
#40596
14!
16!
17!
19!
18
#40776
19
#43739
1:!
#44050
15!
#80000
0!
#80761
08
#80919
09
#120000
0#
1!
#120596
18
#120759
06
#120776
19
#160000
0!
#160761
08
#160919
09
#200000
1(
1!
#200596
18
12!
#200776
13!
19
#240000
0!
#240761
08
#240919
09
#280000
0(
1!
#280596
18
#280761
02!
#280776
19
#280919
03!
#282419
1m!
1n!
1o!
1q!
#283123
0H!
#283156
0D!
#283181
1I!
#283214
1E!
#283239
0J!
#283297
1K!
#283342
0F!
#283355
0L!
#283413
1M!
#283457
1G!
#283471
0N!
#283529
1O!
#283984
1P!
#320000
0!
#320761
08
#320919
09
#340000
b1101000 ,
b101000 ,
b1000 ,
b0 ,
#340761
04!
06!
07!
09!
#344164
0:!
#344500
05!
#360000
b10 +
b11 +
1!
#360594
10!
#360596
18
11!
#360776
19
#400000
0!
#400761
08
#400919
09
#440000
1!
#440596
18
#440776
19
#480000
0!
#480761
08
#480919
09
#520000
1'
1!
#520596
18
1:
#520776
1;
19
#560000
0!
#560761
08
#560919
09
#600000
0'
1!
#600596
18
#600761
0:
#600776
19
#600919
0;
#602418
1k!
1l!
#640000
0!
#640761
08
#640919
09
#660000
b1 +
b0 +
#660759
00!
#660761
01!
#680000
b10000000 *
b11000000 *
b11100000 *
b11110000 *
b11110100 *
1!
#680594
1j
1l
1n
1r
#680596
18
1i
#680776
19
#683743
1s
#683937
1m
#684030
1k
#684072
1o
#720000
0!
#720761
08
#720919
09
#760000
1!
#760596
18
#760776
19
#780000
1&
#780596
1g
#780776
1h
#800000
0!
#800761
08
#800919
09
#840000
1!
#840596
18
#840776
19
#860000
0&
#860761
0g
#860919
0h
#862413
1~!
1!"
1""
1$"
#862417
1}!
#880000
0!
#880761
08
#880919
09
#900000
b1110100 *
b110100 *
b10100 *
b100 *
b0 *
#900759
0j
0l
0n
0r
#900761
0i
#904187
0s
#904355
0m
#904491
0k
#904538
0o
#920000
b10 )
1!
#920594
1e
#920596
18
#920776
19
#960000
0!
#960761
08
#960919
09
#1000000
1!
#1000596
18
#1000776
19
#1040000
1%
0!
#1040596
1?
#1040761
08
#1040776
1@
#1040919
09
#1080000
1!
#1080596
18
#1080776
19
#1120000
0%
0!
#1120761
08
0?
#1120919
0@
09
#1122418
1{!
#1160000
1!
#1160596
18
#1160776
19
#1180000
b0 )
#1180759
0e
#1200000
0!
#1200761
08
#1200919
09
#1220000
1$
#1220596
15
#1223906
17
#1224453
1Q!
#1225009
1R!
#1240000
1!
#1240596
18
#1240776
19
#1242246
1d!
1S!
#1242592
1T!
#1242866
1C
#1243282
1v
#1243302
0B
#1243340
0w
#1243608
1D
#1245995
14
1-
#1280000
0!
#1280761
08
#1280919
09
#1320000
1!
#1320596
18
#1320776
19
#1322246
0d!
#1322635
1c!
#1322966
0C
#1323209
0v
#1323267
1w
#1323436
1B
#1323443
1E
#1323850
0w
#1360000
0$
0!
#1360761
08
05
#1360919
09
#1400000
1!
#1400596
18
#1400776
19
#1402246
1d!
#1402866
1C
#1403282
1v
#1403302
0B
#1403633
0D
#1403710
1F
#1404165
1G
#1440000
0!
#1440761
08
#1440919
09
#1480000
1!
#1480596
18
#1480776
19
#1482246
0d!
#1482635
0c!
1b!
#1482966
0C
#1483209
0v
#1483234
0H
#1483264
0G
#1483436
1B
#1483506
0E
#1483689
1I
#1483697
1x
#1483705
0F
#1483731
1D
#1483755
0y
#1483763
1H
#1484035
1w
#1484093
0x
#1484120
0D
#1484151
1y
#1484160
1G
#1484200
0I
#1520000
0!
#1520761
08
#1520919
09
#1560000
1!
#1560596
18
#1560776
19
#1562246
1d!
#1562866
1C
#1563282
1v
#1563302
0B
#1563340
0w
#1563398
1x
#1563456
0y
#1563608
1D
#1600000
0!
#1600761
08
#1600919
09
#1640000
1!
#1640596
18
#1640776
19
#1642246
0d!
#1642635
1c!
#1642966
0C
#1643209
0v
#1643267
1w
#1643325
0x
#1643383
1y
#1643436
1B
#1643443
1E
#1643850
0w
#1643908
1x
#1643966
0y
#1660000
1#
#1660594
16
#1663765
07
#1664360
0Q!
#1664363
0T!
#1667748
04
0-
#1680000
0!
#1680761
08
#1680919
09
#1720000
1!
#1720596
18
#1720776
19
#1760000
0!
#1760761
08
#1760919
09
#1800000
0#
1!
#1800596
18
#1800759
06
#1800776
19
#1840000
0!
#1840761
08
#1840919
09
#1880000
1!
#1880596
18
#1880776
19
#1920000
0!
#1920761
08
#1920919
09
#1960000
1!
#1960596
18
#1960776
19
#2000000
1$
0!
#2000596
15
#2000761
08
#2000919
09
#2003906
17
#2004453
1Q!
1T!
#2007856
14
1-
#2040000
1!
#2040596
18
#2040776
19
#2042246
1d!
#2042866
1C
#2043282
1v
#2043302
0B
#2043633
0D
#2043710
1F
#2043768
0H
#2044147
0G
#2044223
1I
#2080000
0!
#2080761
08
#2080919
09
#2120000
1!
#2120596
18
#2120776
19
#2122246
0d!
#2122635
0c!
0b!
1a!
#2122966
0C
#2123209
0v
#2123246
0I
#2123336
1G
#2123343
1J
#2123436
1B
#2123445
1H
#2123503
0J
#2123506
0E
#2123623
0x
#2123703
1D!
#2123705
0F
#2123731
1D
#2123761
0E!
#2123900
1I
#2124035
1w
#2124120
0D
#2124142
0G
#2160000
0$
0!
#2160761
08
05
#2160919
09
#2200000
1!
#2200596
18
#2200776
19
#2202246
1d!
#2202866
1C
#2203282
1v
#2203302
0B
#2203340
0w
#2203608
1D
#2240000
0!
#2240761
08
#2240919
09
#2280000
1!
#2280596
18
#2280776
19
#2282246
0d!
#2282635
1c!
#2282966
0C
#2283209
0v
#2283267
1w
#2283436
1B
#2283443
1E
#2283850
0w
#2320000
0!
#2320761
08
#2320919
09
#2360000
1!
#2360596
18
#2360776
19
#2362246
1d!
#2362866
1C
#2363282
1v
#2363302
0B
#2363633
0D
#2363710
1F
#2364165
1G
#2400000
0!
#2400761
08
#2400919
09
#2440000
1!
#2440596
18
#2440776
19
#2442246
0d!
#2442635
0c!
1b!
#2442966
0C
#2443209
0v
#2443234
0H
#2443264
0G
#2443292
1J
#2443436
1B
#2443506
0E
#2443671
0I
#2443697
1x
#2443705
0F
#2443731
1D
#2443747
1K
#2443763
1H
#2443821
0J
#2444035
1w
#2444093
0x
#2444120
0D
#2444160
1G
#2444218
1I
#2444258
0K
#2480000
0!
#2480761
08
#2480919
09
#2520000
1!
#2520596
18
#2520776
19
#2522246
1d!
#2522866
1C
#2523282
1v
#2523302
0B
#2523340
0w
#2523398
1x
#2523608
1D
#2560000
0!
#2560761
08
#2560919
09
#2600000
1!
#2600596
18
#2600776
19
#2602246
0d!
#2602635
1c!
#2602966
0C
#2603209
0v
#2603267
1w
#2603325
0x
#2603436
1B
#2603443
1E
#2603850
0w
#2603908
1x
#2640000
0!
#2640761
08
#2640919
09
#2680000
1!
#2680596
18
#2680776
19
#2682246
1d!
#2682866
1C
#2683282
1v
#2683302
0B
#2683633
0D
#2683710
1F
#2683768
0H
#2683826
1J
#2684147
0G
#2684205
0I
#2684281
1K
#2720000
0!
#2720761
08
#2720919
09
#2760000
1!
#2760596
18
#2760776
19
#2762246
0d!
#2762635
0c!
0b!
0a!
1`!
#2762966
0C
#2763209
0v
#2763297
0J
#2763334
1I
#2763336
1G
#2763436
1B
#2763445
1H
#2763506
0E
#2763623
0x
#2763647
0D!
#2763681
1y
#2763705
0F
#2763731
1D
#2763882
0I
#2764035
1w
#2764120
0D
#2764142
0G
#2800000
0!
#2800761
08
#2800919
09
#2840000
1!
#2840596
18
#2840776
19
#2842246
1d!
#2842866
1C
#2843282
1v
#2843302
0B
#2843340
0w
#2843608
1D
#2880000
0!
#2880761
08
#2880919
09
#2920000
1!
#2920596
18
#2920776
19
#2922246
0d!
#2922635
1c!
#2922966
0C
#2923209
0v
#2923267
1w
#2923436
1B
#2923443
1E
#2923850
0w
#2960000
0!
#2960761
08
#2960919
09
#3000000
1!
#3000596
18
#3000776
19
#3002246
1d!
#3002866
1C
#3003282
1v
#3003302
0B
#3003633
0D
#3003710
1F
#3004165
1G
#3040000
0!
#3040761
08
#3040919
09
#3080000
1!
#3080596
18
#3080776
19
#3082246
0d!
#3082635
0c!
1b!
#3082966
0C
#3083209
0v
#3083234
0H
#3083264
0G
#3083436
1B
#3083506
0E
#3083689
1I
#3083697
1x
#3083705
0F
#3083731
1D
#3083755
0y
#3083763
1H
#3083813
1z
#3084035
1w
#3084093
0x
#3084120
0D
#3084151
1y
#3084160
1G
#3084200
0I
#3084209
0z
#3120000
0!
#3120761
08
#3120919
09
#3160000
1!
#3160596
18
#3160776
19
#3162246
1d!
#3162866
1C
#3163282
1v
#3163302
0B
#3163340
0w
#3163398
1x
#3163456
0y
#3163514
1z
#3163608
1D
#3200000
0!
#3200761
08
#3200919
09
#3240000
1!
#3240596
18
#3240776
19
#3242246
0d!
#3242635
1c!
#3242966
0C
#3243209
0v
#3243267
1w
#3243325
0x
#3243383
1y
#3243436
1B
#3243441
0z
#3243443
1E
#3243850
0w
#3243908
1x
#3243966
0y
#3244024
1z
#3280000
0!
#3280761
08
#3280919
09
#3320000
1!
#3320596
18
#3320776
19
#3322246
1d!
#3322866
1C
#3323282
1v
#3323302
0B
#3323633
0D
#3323710
1F
#3323768
0H
#3324147
0G
#3324223
1I
#3360000
0!
#3360761
08
#3360919
09
#3400000
1!
#3400596
18
#3400776
19
#3402246
0d!
#3402635
0c!
0b!
1a!
#3402966
0C
#3403209
0v
#3403246
0I
#3403336
1G
#3403343
1J
#3403401
0L
#3403436
1B
#3403445
1H
#3403503
0J
#3403506
0E
#3403561
1L
#3403623
0x
#3403703
1D!
#3403705
0F
#3403731
1D
#3403900
1I
#3404035
1w
#3404120
0D
#3404142
0G
#3440000
0!
#3440761
08
#3440919
09
#3480000
1!
#3480596
18
#3480776
19
#3482246
1d!
#3482866
1C
#3483282
1v
#3483302
0B
#3483340
0w
#3483608
1D
#3520000
0!
#3520761
08
#3520919
09
#3560000
1!
#3560596
18
#3560776
19
#3562246
0d!
#3562635
1c!
#3562966
0C
#3563209
0v
#3563267
1w
#3563436
1B
#3563443
1E
#3563850
0w
#3600000
0!
#3600761
08
#3600919
09
#3640000
1!
#3640596
18
#3640776
19
#3642246
1d!
#3642866
1C
#3643282
1v
#3643302
0B
#3643633
0D
#3643710
1F
#3644165
1G
#3680000
0!
#3680761
08
#3680919
09
#3720000
1!
#3720596
18
#3720776
19
#3722246
0d!
#3722635
0c!
1b!
#3722966
0C
#3723209
0v
#3723234
0H
#3723264
0G
#3723292
1J
#3723350
0L
#3723436
1B
#3723506
0E
#3723671
0I
#3723697
1x
#3723705
0F
#3723729
0K
#3723731
1D
#3723763
1H
#3723805
1M
#3723821
0J
#3723879
1L
#3724035
1w
#3724093
0x
#3724120
0D
#3724160
1G
#3724218
1I
#3724276
1K
#3724316
0M
#3760000
0!
#3760761
08
#3760919
09
#3800000
1!
#3800596
18
#3800776
19
#3802246
1d!
#3802866
1C
#3803282
1v
#3803302
0B
#3803340
0w
#3803398
1x
#3803608
1D
#3840000
0!
#3840761
08
#3840919
09
#3880000
1!
#3880596
18
#3880776
19
#3882246
0d!
#3882635
1c!
#3882966
0C
#3883209
0v
#3883267
1w
#3883325
0x
#3883436
1B
#3883443
1E
#3883850
0w
#3883908
1x
#3920000
0!
#3920761
08
#3920919
09
#3960000
1!
#3960596
18
#3960776
19
#3962246
1d!
#3962866
1C
#3963282
1v
#3963302
0B
#3963633
0D
#3963710
1F
#3963768
0H
#3963826
1J
#3963884
0L
#3964147
0G
#3964205
0I
#3964263
0K
#3964339
1M
#4000000
0!
#4000761
08
#4000919
09
#4040000
1!
#4040596
18
#4040776
19
#4042246
0d!
#4042635
0c!
0b!
0a!
0`!
1_!
#4042966
0C
#4043209
0v
#4043247
0M
#4043297
0J
#4043334
1I
#4043336
1G
#4043344
1N
#4043397
0{
#4043436
1B
#4043445
1H
#4043506
0E
#4043623
0x
#4043647
0D!
#4043671
0z
#4043681
1y
#4043705
1E!
0F
#4043729
1{
#4043731
1D
#4043742
1L
#4043799
1O
#4043800
0N
#4043882
0I
#4044035
1w
#4044120
0D
#4044142
0G
#4044197
1M
#4044237
0O
#4080000
0!
#4080761
08
#4080919
09
#4120000
1!
#4120596
18
#4120776
19
#4122246
1d!
#4122866
1C
#4123282
1v
#4123302
0B
#4123340
0w
#4123608
1D
#4160000
0!
#4160761
08
#4160919
09
#4200000
1!
#4200596
18
#4200776
19
#4202246
0d!
#4202635
1c!
#4202966
0C
#4203209
0v
#4203267
1w
#4203436
1B
#4203443
1E
#4203850
0w
#4240000
0!
#4240761
08
#4240919
09
#4280000
1!
#4280596
18
#4280776
19
#4282246
1d!
#4282866
1C
#4283282
1v
#4283302
0B
#4283633
0D
#4283710
1F
#4284165
1G
#4320000
0!
#4320761
08
#4320919
09
#4360000
1!
#4360596
18
#4360776
19
#4362246
0d!
#4362635
0c!
1b!
#4362966
0C
#4363209
0v
#4363234
0H
#4363264
0G
#4363436
1B
#4363506
0E
#4363689
1I
#4363697
1x
#4363705
0F
#4363731
1D
#4363755
0y
#4363763
1H
#4364035
1w
#4364093
0x
#4364120
0D
#4364151
1y
#4364160
1G
#4364200
0I
#4400000
0!
#4400761
08
#4400919
09
#4440000
1!
#4440596
18
#4440776
19
#4442246
1d!
#4442866
1C
#4443282
1v
#4443302
0B
#4443340
0w
#4443398
1x
#4443456
0y
#4443608
1D
#4480000
0!
#4480761
08
#4480919
09
#4520000
1!
#4520596
18
#4520776
19
#4522246
0d!
#4522635
1c!
#4522966
0C
#4523209
0v
#4523267
1w
#4523325
0x
#4523383
1y
#4523436
1B
#4523443
1E
#4523850
0w
#4523908
1x
#4523966
0y
#4560000
0!
#4560761
08
#4560919
09
#4600000
1!
#4600596
18
#4600776
19
#4602246
1d!
#4602866
1C
#4603282
1v
#4603302
0B
#4603633
0D
#4603710
1F
#4603768
0H
#4604147
0G
#4604223
1I
#4640000
0!
#4640761
08
#4640919
09
#4680000
1!
#4680596
18
#4680776
19
#4682246
0d!
#4682635
0c!
0b!
1a!
#4682966
0C
#4683209
0v
#4683246
0I
#4683336
1G
#4683343
1J
#4683436
1B
#4683445
1H
#4683503
0J
#4683506
0E
#4683623
0x
#4683703
1D!
#4683705
0F
#4683731
1D
#4683761
0E!
#4683819
1F!
#4683900
1I
#4684035
1w
#4684120
0D
#4684142
0G
#4720000
0!
#4720761
08
#4720919
09
#4760000
1!
#4760596
18
#4760776
19
#4762246
1d!
#4762866
1C
#4763282
1v
#4763302
0B
#4763340
0w
#4763608
1D
#4800000
0!
#4800761
08
#4800919
09
#4840000
1!
#4840596
18
#4840776
19
#4842246
0d!
#4842635
1c!
#4842966
0C
#4843209
0v
#4843267
1w
#4843436
1B
#4843443
1E
#4843850
0w
#4880000
0!
#4880761
08
#4880919
09
#4920000
1!
#4920596
18
#4920776
19
#4922246
1d!
#4922866
1C
#4923282
1v
#4923302
0B
#4923633
0D
#4923710
1F
#4924165
1G
#4960000
0!
#4960761
08
#4960919
09
#5000000
1!
#5000596
18
#5000776
19
#5002246
0d!
#5002635
0c!
1b!
#5002966
0C
#5003209
0v
#5003234
0H
#5003264
0G
#5003292
1J
#5003436
1B
#5003506
0E
#5003671
0I
#5003697
1x
#5003705
0F
#5003731
1D
#5003747
1K
#5003763
1H
#5003821
0J
#5004035
1w
#5004093
0x
#5004120
0D
#5004160
1G
#5004218
1I
#5004258
0K
#5040000
0!
#5040761
08
#5040919
09
#5080000
1!
#5080596
18
#5080776
19
#5082246
1d!
#5082866
1C
#5083282
1v
#5083302
0B
#5083340
0w
#5083398
1x
#5083608
1D
#5120000
0!
#5120761
08
#5120919
09
#5160000
1!
#5160596
18
#5160776
19
#5162246
0d!
#5162635
1c!
#5162966
0C
#5163209
0v
#5163267
1w
#5163325
0x
#5163436
1B
#5163443
1E
#5163850
0w
#5163908
1x
#5200000
0!
#5200761
08
#5200919
09
#5240000
1!
#5240596
18
#5240776
19
#5242246
1d!
#5242866
1C
#5243282
1v
#5243302
0B
#5243633
0D
#5243710
1F
#5243768
0H
#5243826
1J
#5244147
0G
#5244205
0I
#5244281
1K
#5280000
0!
#5280761
08
#5280919
09
#5320000
1!
#5320596
18
#5320776
19
#5322246
0d!
#5322635
0c!
0b!
0a!
1`!
#5322966
0C
#5323209
0v
#5323297
0J
#5323334
1I
#5323336
1G
#5323436
1B
#5323445
1H
#5323506
0E
#5323623
0x
#5323647
0D!
#5323681
1y
#5323705
0F
#5323731
1D
#5323882
0I
#5324035
1w
#5324120
0D
#5324142
0G
#5360000
0!
#5360761
08
#5360919
09
#5400000
1!
#5400596
18
#5400776
19
#5402246
1d!
#5402866
1C
#5403282
1v
#5403302
0B
#5403340
0w
#5403608
1D
#5440000
0!
#5440761
08
#5440919
09
#5480000
1!
#5480596
18
#5480776
19
#5482246
0d!
#5482635
1c!
#5482966
0C
#5483209
0v
#5483267
1w
#5483436
1B
#5483443
1E
#5483850
0w
#5520000
0!
#5520761
08
#5520919
09
#5560000
1!
#5560596
18
#5560776
19
#5562246
1d!
#5562866
1C
#5563282
1v
#5563302
0B
#5563633
0D
#5563710
1F
#5564165
1G
#5600000
0!
#5600761
08
#5600919
09
#5640000
1!
#5640596
18
#5640776
19
#5642246
0d!
#5642635
0c!
1b!
#5642966
0C
#5643209
0v
#5643234
0H
#5643264
0G
#5643436
1B
#5643506
0E
#5643689
1I
#5643697
1x
#5643705
0F
#5643731
1D
#5643755
0y
#5643763
1H
#5643813
1z
#5643871
0{
#5644035
1w
#5644093
0x
#5644120
0D
#5644151
1y
#5644160
1G
#5644200
0I
#5644209
0z
#5644267
1{
#5680000
0!
#5680761
08
#5680919
09
#5720000
1!
#5720596
18
#5720776
19
#5722246
1d!
#5722866
1C
#5723282
1v
#5723302
0B
#5723340
0w
#5723398
1x
#5723456
0y
#5723514
1z
#5723572
0{
#5723608
1D
#5760000
0!
#5760761
08
#5760919
09
#5800000
1!
#5800596
18
#5800776
19
#5802246
0d!
#5802635
1c!
#5802966
0C
#5803209
0v
#5803267
1w
#5803325
0x
#5803383
1y
#5803436
1B
#5803441
0z
#5803443
1E
#5803499
1{
#5803850
0w
#5803908
1x
#5803966
0y
